Blue Beer’s Picasso
…
#Remove any whitespace in state abbreviations
breweries$State <- gsub("\\s+", "", breweries$State)
#Give known column names
colnames(breweries) <- c("Brew_ID", "Name", "City", "Abb")

#Join data frames so state name is available for use
breweries <- left_join(breweries, st_crosswalk, by = "Abb")

#group and sumarizenumber of breweries by state
by_state <- breweries%>%group_by(State)%>%summarize('NumberOfBreweries' = n())
by_state

## # A tibble: 51 x 2
##    State                NumberOfBreweries
##    <chr>                            <int>
##  1 Alabama                              3
##  2 Alaska                               7
##  3 Arizona                             11
##  4 Arkansas                             2
##  5 California                          39
##  6 Colorado                            47
##  7 Connecticut                          8
##  8 Delaware                             2
##  9 District of Columbia                 1
## 10 Florida                             15
## # ... with 41 more rows
…
